{
  "__type__": "cc.AnimationClip",
  "_name": "07_stay",
  "_objFlags": 0,
  "_rawFiles": null,
  "_duration": 2,
  "sample": 60,
  "speed": 1,
  "wrapMode": "2",
  "curveData": {
    "props": {
      "position": [
        {
          "frame": 0,
          "value": [
            196,
            -261.9
          ]
        },
        {
          "frame": 1,
          "value": [
            196,
            -254
          ]
        },
        {
          "frame": 1.1666666666666667,
          "value": [
            196,
            -262
          ]
        },
        {
          "frame": 1.3333333333333333,
          "value": [
            196,
            -257
          ]
        },
        {
          "frame": 1.4166666666666667,
          "value": [
            196,
            -265
          ]
        },
        {
          "frame": 1.5,
          "value": [
            196,
            -262
          ]
        },
        {
          "frame": 2,
          "value": [
            196,
            -261.9
          ]
        }
      ]
    }
  },
  "events": []
}