{
  "__type__": "cc.AnimationClip",
  "_name": "10_stay",
  "_objFlags": 0,
  "_rawFiles": null,
  "_duration": 2,
  "sample": 60,
  "speed": 0.5,
  "wrapMode": "2",
  "curveData": {
    "props": {
      "position": [
        {
          "frame": 0,
          "value": [
            104,
            -133
          ]
        },
        {
          "frame": 1,
          "value": [
            104,
            -127
          ]
        },
        {
          "frame": 1.1666666666666667,
          "value": [
            104,
            -136
          ]
        },
        {
          "frame": 1.3166666666666667,
          "value": [
            104,
            -122
          ]
        },
        {
          "frame": 1.4166666666666667,
          "value": [
            104,
            -137
          ]
        },
        {
          "frame": 1.5,
          "value": [
            104,
            -124
          ]
        },
        {
          "frame": 1.6166666666666667,
          "value": [
            104,
            -140
          ]
        },
        {
          "frame": 2,
          "value": [
            104,
            -133
          ]
        }
      ]
    }
  },
  "events": []
}